<?xml version="1.0" encoding="UTF-8"?>
<session version="1.0">
<refactoring accessors="true" comment="Delete element from project &apos;ProyectoJava2021&apos;&#x0D;&#x0A;- Original project: &apos;ProyectoJava2021&apos;&#x0D;&#x0A;- Original element: &apos;modulo2.Ejercicio2.java&apos;" description="Delete element" element1="/src&lt;modulo2{Ejercicio2.java" elements="1" flags="589830" id="org.eclipse.jdt.ui.delete" resources="0" stamp="1620332099961" subPackages="false" version="1.0"/>
</session>